[gd_scene load_steps=3 format=2]

[ext_resource path="res://blokoj/kosmo/resursoj/blue_frame.png" type="Texture" id=1]
[ext_resource path="res://blokoj/kosmo/skriptoj/tactical_label.gd" type="Script" id=2]

[node name="tactical_label" type="Spatial"]
script = ExtResource( 2 )

[node name="VisibilityNotifier" type="VisibilityNotifier" parent="."]

[node name="TextureRect" type="TextureRect" parent="."]
visible = false
margin_left = -0.451784
margin_top = 0.146971
margin_right = 49.5482
margin_bottom = 50.147
texture = ExtResource( 1 )
expand = true
__meta__ = {
"_edit_use_anchors_": false
}

[node name="Label" type="Label" parent="TextureRect"]
margin_left = 4.42731
margin_top = 47.6786
margin_right = 44.4273
margin_bottom = 61.6786
text = "Space Station"
__meta__ = {
"_edit_use_anchors_": false
}
[connection signal="camera_entered" from="VisibilityNotifier" to="." method="_on_VisibilityNotifier_camera_entered"]
[connection signal="camera_exited" from="VisibilityNotifier" to="." method="_on_VisibilityNotifier_camera_exited"]
[connection signal="gui_input" from="TextureRect" to="." method="_on_TextureRect_gui_input"]
