[gd_scene format=2]

[node name="Spatial" type="Spatial"]

[node name="OmniLight1" type="OmniLight" parent="."]
transform = Transform( 1, 0, 0, 0, 1, 0, 0, 0, 1, -31.1831, 20.7514, -26.7184 )
light_bake_mode = 2
omni_range = 39.6056

[node name="OmniLight2" type="OmniLight" parent="."]
transform = Transform( 1, 0, 0, 0, 1, 0, 0, 0, 1, 27.7004, 20.9826, -28.3669 )
light_bake_mode = 2
omni_range = 39.6056

[node name="OmniLight4" type="OmniLight" parent="."]
transform = Transform( 1, 0, 0, 0, 1, 0, 0, 0, 1, -30.7012, 20.9826, -3.8007 )
light_bake_mode = 2
omni_range = 39.6056

[node name="OmniLight3" type="OmniLight" parent="."]
transform = Transform( 1, 0, 0, 0, 1, 0, 0, 0, 1, 27.7004, 20.9826, -3.8007 )
light_bake_mode = 2
omni_range = 39.6056

[node name="OmniLight6" type="OmniLight" parent="."]
transform = Transform( 1, 0, 0, 0, 1, 0, 0, 0, 1, -30.7012, 20.9826, 22.2029 )
light_bake_mode = 2
omni_range = 39.6056

[node name="OmniLight5" type="OmniLight" parent="."]
transform = Transform( 1, 0, 0, 0, 1, 0, 0, 0, 1, 27.7004, 20.9826, 22.2029 )
light_bake_mode = 2
omni_range = 39.6056

[node name="OmniLight8" type="OmniLight" parent="."]
transform = Transform( 1, 0, 0, 0, 1, 0, 0, 0, 1, -30.7012, 20.9826, 48.2103 )
light_bake_mode = 2
omni_range = 39.6056

[node name="OmniLight7" type="OmniLight" parent="."]
transform = Transform( 1, 0, 0, 0, 1, 0, 0, 0, 1, 27.7004, 20.9826, 48.2103 )
light_bake_mode = 2
omni_range = 39.6056

[node name="OmniLight10" type="OmniLight" parent="."]
transform = Transform( 1, 0, 0, 0, 1, 0, 0, 0, 1, -30.7012, 20.9826, 71.8217 )
light_bake_mode = 2
omni_range = 39.6056

[node name="OmniLight9" type="OmniLight" parent="."]
transform = Transform( 1, 0, 0, 0, 1, 0, 0, 0, 1, 27.7004, 20.9826, 71.8217 )
light_bake_mode = 2
omni_range = 39.6056

[node name="OmniLight12" type="OmniLight" parent="."]
transform = Transform( 1, 0, 0, 0, 1, 0, 0, 0, 1, -30.7012, 20.9826, 97.5779 )
light_bake_mode = 2
omni_range = 39.6056

[node name="OmniLight11" type="OmniLight" parent="."]
transform = Transform( 1, 0, 0, 0, 1, 0, 0, 0, 1, 27.7004, 20.9826, 97.5779 )
light_bake_mode = 2
omni_range = 39.6056
